{
    "KPlugin": {
        "Description": "KOrganizer View Configuration",
        "Description[ar]": "ضبط منظور «منظّمك»",
        "Description[az]": "KOrganizer görünşü tənzimləməsi",
        "Description[bg]": "Настройка на изглед на KOrganizer",
        "Description[ca@valencia]": "Configureu la vista de KOrganizer",
        "Description[ca]": "Configuració de la vista del KOrganizer",
        "Description[cs]": "Nastavení pohledů KOrganizeru",
        "Description[de]": "Ansichts-Einstellungen für KOrganizer",
        "Description[en_GB]": "KOrganizer View Configuration",
        "Description[eo]": "KOrganizer Rigardagordo",
        "Description[es]": "Configuración de la vista de KOrganizer",
        "Description[eu]": "«KOrganizer»ren Ikuspegi konfigurazioa",
        "Description[fi]": "KOrganizerin näkymäasetukset",
        "Description[fr]": "Configuration des affichages de KOrganizer",
        "Description[gl]": "Configuración da vista de KOrganizer.",
        "Description[he]": "הגדרות תצוגה של KOrganizer",
        "Description[ia]": "Configuration de vistas in KOrganizer",
        "Description[id]": "Konfigurasi Tampilan KOrganizer",
        "Description[it]": "Configurazione viste di KOrganizer",
        "Description[ka]": "KOrganizer-ის ხედის მორგება",
        "Description[ko]": "KOrganizer 보기 설정",
        "Description[nl]": "KOrganizer weergave instellen",
        "Description[pl]": "Ustawienia widoków KOrganizera",
        "Description[pt]": "Configuração das Janelas do KOrganizer",
        "Description[pt_BR]": "Configuração de visualizações do KOrganizer",
        "Description[ru]": "Настройка представлений календаря",
        "Description[sl]": "Nastavitev prikazov KOrganizerja",
        "Description[sv]": "Inställning av Korganizers vyer",
        "Description[tr]": "K Organizatör Görünüm Yapılandırması",
        "Description[uk]": "Налаштування переглядів у KOrganizer",
        "Description[x-test]": "xxKOrganizer View Configurationxx",
        "Description[zh_CN]": "KOrganizer 视图配置",
        "Description[zh_TW]": "KOrganizer 檢視設定",
        "Icon": "view-choose",
        "Name": "Views",
        "Name[af]": "Aansigte",
        "Name[ar]": "المناظير",
        "Name[az]": "Görünüşlər",
        "Name[bg]": "Изгледи",
        "Name[br]": "Gweloù",
        "Name[bs]": "Pogledi",
        "Name[ca@valencia]": "Vistes",
        "Name[ca]": "Vistes",
        "Name[cs]": "Pohledy",
        "Name[cy]": "Golygon",
        "Name[da]": "Visninger",
        "Name[de]": "Ansichten",
        "Name[el]": "Προβολές",
        "Name[en_GB]": "Views",
        "Name[eo]": "Rigardoj",
        "Name[es]": "Vistas",
        "Name[et]": "Vaated",
        "Name[eu]": "Ikuspegiak",
        "Name[fa]": "نماها",
        "Name[fi]": "Näkymät",
        "Name[fr]": "Vues",
        "Name[fy]": "Werjeften",
        "Name[ga]": "Amhairc",
        "Name[gl]": "Vistas",
        "Name[he]": "תצוגות",
        "Name[hu]": "Nézetek",
        "Name[ia]": "Vistas",
        "Name[id]": "Tampilan",
        "Name[is]": "Sýn",
        "Name[it]": "Viste",
        "Name[ja]": "ビュー",
        "Name[ka]": "ხედები",
        "Name[kk]": "Көріністері",
        "Name[km]": "ទិដ្ឋភាព",
        "Name[ko]": "보기",
        "Name[lt]": "Peržiūros",
        "Name[lv]": "Skati",
        "Name[mai]": "दृश्य",
        "Name[mk]": "Приказ",
        "Name[mr]": "दृश्य",
        "Name[ms]": "Paparan",
        "Name[nb]": "Visninger",
        "Name[nds]": "Ansichten",
        "Name[ne]": "दृश्य",
        "Name[nl]": "Weergaven",
        "Name[nn]": "Visingar",
        "Name[pa]": "ਝਲਕ",
        "Name[pl]": "Widoki",
        "Name[pt]": "Janelas",
        "Name[pt_BR]": "Visualizações",
        "Name[ro]": "Vizualizări",
        "Name[ru]": "Представления",
        "Name[se]": "Čájeheamit",
        "Name[sk]": "Pohľady",
        "Name[sl]": "Prikazi",
        "Name[sr@ijekavian]": "Прикази",
        "Name[sr@ijekavianlatin]": "Prikazi",
        "Name[sr@latin]": "Prikazi",
        "Name[sr]": "Прикази",
        "Name[sv]": "Vyer",
        "Name[ta]": "காட்சிகள்",
        "Name[tg]": "Намудҳо",
        "Name[th]": "มุมมอง",
        "Name[tr]": "Görünümler",
        "Name[ug]": "كۆرۈنۈشلەر",
        "Name[uk]": "Перегляди",
        "Name[uz@cyrillic]": "Кўринишлар",
        "Name[uz]": "Koʻrinishlar",
        "Name[wa]": "Vuwes",
        "Name[x-test]": "xxViewsxx",
        "Name[zh_CN]": "查看",
        "Name[zh_TW]": "檢視"
    },
    "X-DocPath": "korganizer/config.html#config-main-views",
    "X-KDE-Weight": 300
}
