{
    "KPlugin": {
        "Description": "KOrganizer Colors and Fonts Configuration",
        "Description[ar]": "ضبط ألوان وخطوط «منظّمك»",
        "Description[az]": "KOrganizer rənglərin və şriftlərin tənzimlənməsi",
        "Description[bg]": "Настройка на цветовете и шрифтовете на KOrganizer",
        "Description[ca@valencia]": "Configureu els colors i lletres de KOrganizer",
        "Description[ca]": "Configuració dels colors i lletres del KOrganizer",
        "Description[cs]": "Nastavení barev a písem KOrganizeru",
        "Description[de]": "Farb- und Schriftdarstellung für KOrganizer",
        "Description[en_GB]": "KOrganizer Colours and Fonts Configuration",
        "Description[eo]": "Agordo de KOrganizer Koloroj kaj Tiparoj",
        "Description[es]": "Configuración de los colores y tipos de letra de KOrganizer",
        "Description[eu]": "«KOrganizer»ren Koloreak eta Letra-tipoak konfigurazioa",
        "Description[fi]": "KOrganizerin väri- ja fonttiasetukset",
        "Description[fr]": "Configuration des couleurs et des polices de KOrganizer",
        "Description[gl]": "Configuración das cores e das fontes de KOrganizer.",
        "Description[he]": "הגדרות צבעים וגופנים של KOrganizer",
        "Description[ia]": "Configuration de colores e fontes in KOrganizer",
        "Description[id]": "Konfigurasi Warna dan Font KOrganizer",
        "Description[it]": "Configurazione dei colori e dei caratteri di KOrganizer",
        "Description[ka]": "KOrganizer-ის ფერებისა და ფონტების მორგება",
        "Description[ko]": "KOrganizer 색과 글꼴 설정",
        "Description[nl]": "Instellingen voor kleuren en lettertypen in KOrganizer",
        "Description[pl]": "Ustawienia kolorów i czcionek KOrganizera",
        "Description[pt]": "Configuração de Cores e Tipos de Letra do KOrganizer",
        "Description[pt_BR]": "Configuração de fontes e cores do KOrganizer",
        "Description[ru]": "Настройка цветов и шрифтов календаря",
        "Description[sl]": "Nastavitev barv in pisav v KOrganizerju",
        "Description[sv]": "Inställning av Korganizers färger och teckensnitt",
        "Description[tr]": "K Organizatör Renk ve Yazıtipi Yapılandırması",
        "Description[uk]": "Налаштування кольорів і шрифтів у KOrganizer",
        "Description[x-test]": "xxKOrganizer Colors and Fonts Configurationxx",
        "Description[zh_CN]": "KOrganizer 颜色和字体配置",
        "Description[zh_TW]": "KOrganizer 顏色與字型設定",
        "Icon": "preferences-desktop-color",
        "Name": "Colors and Fonts",
        "Name[ar]": "الألوان والخطوط",
        "Name[az]": "Rənglər və Şriftlər",
        "Name[bg]": "Цветове и шрифтове",
        "Name[bs]": "Boje i vrsta slova",
        "Name[ca@valencia]": "Colors i lletres",
        "Name[ca]": "Colors i lletres",
        "Name[cs]": "Barvy a písma",
        "Name[da]": "Farver og skrifttyper",
        "Name[de]": "Farben und Schriftarten",
        "Name[el]": "Χρώματα και γραμματοσειρές",
        "Name[en_GB]": "Colours and Fonts",
        "Name[eo]": "Koloroj kaj Tiparoj",
        "Name[es]": "Colores y tipos de letra",
        "Name[et]": "Värvid ja fondid",
        "Name[eu]": "Koloreak eta letra-tipoak",
        "Name[fi]": "Värit ja fontit",
        "Name[fr]": "Couleurs et polices",
        "Name[ga]": "Dathanna agus Clónna",
        "Name[gl]": "Cores e fontes",
        "Name[he]": "צבעים וגופנים",
        "Name[hu]": "Színek és betűtípusok",
        "Name[ia]": "Colores e fontes",
        "Name[id]": "Warna dan Font",
        "Name[it]": "Colori e caratteri",
        "Name[ja]": "色とフォント",
        "Name[ka]": "ფერები და ფონტები",
        "Name[kk]": "Түс пен Қаріпі",
        "Name[km]": "ពណ៌ និង​ពុម្ពអក្សរ",
        "Name[ko]": "색과 글꼴",
        "Name[lt]": "Spalvos ir šriftai",
        "Name[lv]": "Krāsas un fonti",
        "Name[mr]": "रंग व फॉन्ट",
        "Name[nb]": "Farger og skrifter",
        "Name[nds]": "Klören un Schriftoorden",
        "Name[nl]": "Kleuren en lettertypen",
        "Name[nn]": "Fargar og skrifter",
        "Name[pa]": "ਰੰਗ ਅਤੇ ਫੋਂਟ",
        "Name[pl]": "Kolory i czcionki",
        "Name[pt]": "Cores e Tipos de Letra",
        "Name[pt_BR]": "Fontes e cores",
        "Name[ro]": "Culori și fonturi",
        "Name[ru]": "Цвета и шрифты",
        "Name[sk]": "Farby a písma",
        "Name[sl]": "Barve in pisave",
        "Name[sr@ijekavian]": "Боје и фонтови",
        "Name[sr@ijekavianlatin]": "Boje i fontovi",
        "Name[sr@latin]": "Boje i fontovi",
        "Name[sr]": "Боје и фонтови",
        "Name[sv]": "Färger och teckensnitt",
        "Name[th]": "สีและแบบอักษร",
        "Name[tr]": "Renkler ve Yazıtipleri",
        "Name[uk]": "Кольори і шрифти",
        "Name[wa]": "Coleurs et fontes",
        "Name[x-test]": "xxColors and Fontsxx",
        "Name[zh_CN]": "颜色和字体",
        "Name[zh_TW]": "顏色與字型"
    },
    "X-DocPath": "korganizer/config.html#config-main-fonts",
    "X-KDE-Weight": 400
}
